<?xml version="1.0" encoding="UTF-8" standalone="no"?>
<svg xmlns:xlink="http://www.w3.org/1999/xlink" xmlns="http://www.w3.org/2000/svg"
     contentScriptType="application/ecmascript" contentStyleType="text/css" height="1710px" preserveAspectRatio="none"
     style="width:1836px;height:1710px;" version="1.1" viewBox="0 0 1836 1710" width="1836px" zoomAndPan="magnify">
    <defs>
        <filter height="300%" id="f1w4cdm613u0sl" width="300%" x="-1" y="-1">
            <feGaussianBlur result="blurOut" stdDeviation="4.0"/>
            <feColorMatrix in="blurOut" result="blurOut2" type="matrix"
                           values="0 0 0 0 0 0 0 0 0 0 0 0 0 0 0 0 0 0 .4 0"/>
            <feOffset dx="8.0" dy="8.0" in="blurOut2" result="blurOut3"/>
            <feBlend in="SourceGraphic" in2="blurOut3" mode="normal"/>
        </filter>
    </defs>
    <g><!--MD5=[35b2dac8b8904086cf063a3c09be435d]
cluster Processes JSON Schema-->
        <polygon fill="#FFFFFF" filter="url(#f1w4cdm613u0sl)"
                 points="302,48,658,48,672,92.9766,678,92.9766,678,376,302,376,302,48"
                 style="stroke: #000000; stroke-width: 3.0;"/>
        <line style="stroke: #000000; stroke-width: 3.0;" x1="302" x2="672" y1="92.9766" y2="92.9766"/>
        <text fill="#000000" font-family="sans-serif" font-size="28" font-weight="bold" lengthAdjust="spacingAndGlyphs"
              textLength="344" x="310" y="79.0703">Processes JSON Schema
        </text><!--MD5=[fe638cb5496ff15ac51e7648137a5837]
cluster Actors JSON Schema-->
        <polygon fill="#FFFFFF" filter="url(#f1w4cdm613u0sl)"
                 points="44,424,350,424,364,468.9766,370,468.9766,370,674,44,674,44,424"
                 style="stroke: #000000; stroke-width: 3.0;"/>
        <line style="stroke: #000000; stroke-width: 3.0;" x1="44" x2="364" y1="468.9766" y2="468.9766"/>
        <text fill="#000000" font-family="sans-serif" font-size="28" font-weight="bold" lengthAdjust="spacingAndGlyphs"
              textLength="294" x="52" y="455.0703">Actors JSON Schema
        </text><!--MD5=[1bc4e4045614c0cd2e554f272a64e9a4]
cluster Resources JSON Schema-->
        <polygon fill="#FFFFFF" filter="url(#f1w4cdm613u0sl)"
                 points="1098,731,1458,731,1472,775.9766,1792,775.9766,1792,1379,1098,1379,1098,731"
                 style="stroke: #000000; stroke-width: 3.0;"/>
        <line style="stroke: #000000; stroke-width: 3.0;" x1="1098" x2="1472" y1="775.9766" y2="775.9766"/>
        <text fill="#000000" font-family="sans-serif" font-size="28" font-weight="bold" lengthAdjust="spacingAndGlyphs"
              textLength="348" x="1106" y="762.0703">Resources JSON Schema
        </text><!--MD5=[20b232ddc592fc6f1932d31228bd247b]
cluster Activities JSON Schema-->
        <polygon fill="#FFFFFF" filter="url(#f1w4cdm613u0sl)"
                 points="418,437,768,437,782,481.9766,1050,481.9766,1050,1686,418,1686,418,437"
                 style="stroke: #000000; stroke-width: 3.0;"/>
        <line style="stroke: #000000; stroke-width: 3.0;" x1="418" x2="782" y1="481.9766" y2="481.9766"/>
        <text fill="#000000" font-family="sans-serif" font-size="28" font-weight="bold" lengthAdjust="spacingAndGlyphs"
              textLength="338" x="426" y="468.0703">Activities JSON Schema
        </text><!--MD5=[21d5734f7a1980f4bbbaaade6302ea61]
class processes-->
        <rect fill="#FEFECE" filter="url(#f1w4cdm613u0sl)" height="225.5508" id="processes"
              style="stroke: #A80036; stroke-width: 3.0;" width="284" x="348" y="118"/>
        <ellipse cx="424.8" cy="150" fill="#B4A7E5" rx="22" ry="22" style="stroke: #A80036; stroke-width: 2.0;"/>
        <path d="M417.6555,142.5303 L417.6555,138.2139 L432.4143,138.2139 L432.4143,142.5303 L427.4836,142.5303 L427.4836,158.6836 L432.4143,158.6836 L432.4143,163 L417.6555,163 L417.6555,158.6836 L422.5861,158.6836 L422.5861,142.5303 Z "/>
        <text fill="#000000" font-family="sans-serif" font-size="24" font-style="italic" lengthAdjust="spacingAndGlyphs"
              textLength="116" x="463.2" y="159.0703">processes
        </text>
        <line style="stroke: #A80036; stroke-width: 3.0;" x1="350" x2="630" y1="182" y2="182"/>
        <text fill="#000000" font-family="sans-serif" font-size="22" lengthAdjust="spacingAndGlyphs" textLength="112"
              x="360" y="211.2695">"id": string
        </text>
        <text fill="#000000" font-family="sans-serif" font-size="22" lengthAdjust="spacingAndGlyphs" textLength="150"
              x="360" y="237.1797">"name": string
        </text>
        <text fill="#000000" font-family="sans-serif" font-size="22" lengthAdjust="spacingAndGlyphs" textLength="180"
              x="360" y="263.0898">"actors": actors[]
        </text>
        <text fill="#000000" font-family="sans-serif" font-size="22" lengthAdjust="spacingAndGlyphs" textLength="260"
              x="360" y="289">"resources": resources[]
        </text>
        <text fill="#000000" font-family="sans-serif" font-size="22" lengthAdjust="spacingAndGlyphs" textLength="232"
              x="360" y="314.9102">"activities": activities[]
        </text>
        <line style="stroke: #A80036; stroke-width: 3.0;" x1="350" x2="630" y1="327.5508" y2="327.5508"/><!--MD5=[a83d0e5371f8c854bf54106f324b2000]
class actors-->
        <rect fill="#FEFECE" filter="url(#f1w4cdm613u0sl)" height="147.8203" id="actors"
              style="stroke: #A80036; stroke-width: 3.0;" width="174" x="163" y="494"/>
        <ellipse cx="211" cy="526" fill="#B4A7E5" rx="22" ry="22" style="stroke: #A80036; stroke-width: 2.0;"/>
        <path d="M203.8555,518.5303 L203.8555,514.2139 L218.6143,514.2139 L218.6143,518.5303 L213.6836,518.5303 L213.6836,534.6836 L218.6143,534.6836 L218.6143,539 L203.8555,539 L203.8555,534.6836 L208.7861,534.6836 L208.7861,518.5303 Z "/>
        <text fill="#000000" font-family="sans-serif" font-size="24" font-style="italic" lengthAdjust="spacingAndGlyphs"
              textLength="70" x="243" y="535.0703">actors
        </text>
        <line style="stroke: #A80036; stroke-width: 3.0;" x1="165" x2="335" y1="558" y2="558"/>
        <text fill="#000000" font-family="sans-serif" font-size="22" lengthAdjust="spacingAndGlyphs" textLength="112"
              x="175" y="587.2695">"id": string
        </text>
        <text fill="#000000" font-family="sans-serif" font-size="22" lengthAdjust="spacingAndGlyphs" textLength="150"
              x="175" y="613.1797">"name": string
        </text>
        <line style="stroke: #A80036; stroke-width: 3.0;" x1="165" x2="335" y1="625.8203" y2="625.8203"/><!--MD5=[0d3919e7730c4c6487c6390a89507354]
class resources-->
        <rect fill="#FEFECE" filter="url(#f1w4cdm613u0sl)" height="199.6406" id="resources"
              style="stroke: #A80036; stroke-width: 3.0;" width="420" x="1130" y="801"/>
        <ellipse cx="1275.5" cy="833" fill="#B4A7E5" rx="22" ry="22" style="stroke: #A80036; stroke-width: 2.0;"/>
        <path d="M1268.3555,825.5303 L1268.3555,821.2139 L1283.1143,821.2139 L1283.1143,825.5303 L1278.1836,825.5303 L1278.1836,841.6836 L1283.1143,841.6836 L1283.1143,846 L1268.3555,846 L1268.3555,841.6836 L1273.2861,841.6836 L1273.2861,825.5303 Z "/>
        <text fill="#000000" font-family="sans-serif" font-size="24" font-style="italic" lengthAdjust="spacingAndGlyphs"
              textLength="112" x="1316.5" y="842.0703">resources
        </text>
        <line style="stroke: #A80036; stroke-width: 3.0;" x1="1132" x2="1548" y1="865" y2="865"/>
        <text fill="#000000" font-family="sans-serif" font-size="22" lengthAdjust="spacingAndGlyphs" textLength="112"
              x="1142" y="894.2695">"id": string
        </text>
        <text fill="#000000" font-family="sans-serif" font-size="22" lengthAdjust="spacingAndGlyphs" textLength="150"
              x="1142" y="920.1797">"name": string
        </text>
        <text fill="#000000" font-family="sans-serif" font-size="22" lengthAdjust="spacingAndGlyphs" textLength="280"
              x="1142" y="946.0898">"states": resource-states[]
        </text>
        <text fill="#000000" font-family="sans-serif" font-size="22" lengthAdjust="spacingAndGlyphs" textLength="396"
              x="1142" y="972">"parameters": resource-parameters[]
        </text>
        <line style="stroke: #A80036; stroke-width: 3.0;" x1="1132" x2="1548" y1="984.6406" y2="984.6406"/><!--MD5=[ac815dc4d66251c201638c15ff0759df]
class resource-states-->
        <rect fill="#FEFECE" filter="url(#f1w4cdm613u0sl)" height="147.8203" id="resource-states"
              style="stroke: #A80036; stroke-width: 3.0;" width="246" x="1131" y="1199"/>
        <ellipse cx="1161" cy="1231" fill="#B4A7E5" rx="22" ry="22" style="stroke: #A80036; stroke-width: 2.0;"/>
        <path d="M1153.8555,1223.5303 L1153.8555,1219.2139 L1168.6143,1219.2139 L1168.6143,1223.5303 L1163.6836,1223.5303 L1163.6836,1239.6836 L1168.6143,1239.6836 L1168.6143,1244 L1153.8555,1244 L1153.8555,1239.6836 L1158.7861,1239.6836 L1158.7861,1223.5303 Z "/>
        <text fill="#000000" font-family="sans-serif" font-size="24" font-style="italic" lengthAdjust="spacingAndGlyphs"
              textLength="182" x="1189" y="1240.0703">resource-states
        </text>
        <line style="stroke: #A80036; stroke-width: 3.0;" x1="1133" x2="1375" y1="1263" y2="1263"/>
        <text fill="#000000" font-family="sans-serif" font-size="22" lengthAdjust="spacingAndGlyphs" textLength="112"
              x="1143" y="1292.2695">"id": string
        </text>
        <text fill="#000000" font-family="sans-serif" font-size="22" lengthAdjust="spacingAndGlyphs" textLength="150"
              x="1143" y="1318.1797">"name": string
        </text>
        <line style="stroke: #A80036; stroke-width: 3.0;" x1="1133" x2="1375" y1="1330.8203" y2="1330.8203"/><!--MD5=[29793c0ddfb30820de564fb441ac90df]
class resource-parameters-->
        <rect fill="#FEFECE" filter="url(#f1w4cdm613u0sl)" height="147.8203" id="resource-parameters"
              style="stroke: #A80036; stroke-width: 3.0;" width="312" x="1448" y="1199"/>
        <ellipse cx="1478" cy="1231" fill="#B4A7E5" rx="22" ry="22" style="stroke: #A80036; stroke-width: 2.0;"/>
        <path d="M1470.8555,1223.5303 L1470.8555,1219.2139 L1485.6143,1219.2139 L1485.6143,1223.5303 L1480.6836,1223.5303 L1480.6836,1239.6836 L1485.6143,1239.6836 L1485.6143,1244 L1470.8555,1244 L1470.8555,1239.6836 L1475.7861,1239.6836 L1475.7861,1223.5303 Z "/>
        <text fill="#000000" font-family="sans-serif" font-size="24" font-style="italic" lengthAdjust="spacingAndGlyphs"
              textLength="248" x="1506" y="1240.0703">resource-parameters
        </text>
        <line style="stroke: #A80036; stroke-width: 3.0;" x1="1450" x2="1758" y1="1263" y2="1263"/>
        <text fill="#000000" font-family="sans-serif" font-size="22" lengthAdjust="spacingAndGlyphs" textLength="112"
              x="1460" y="1292.2695">"id": string
        </text>
        <text fill="#000000" font-family="sans-serif" font-size="22" lengthAdjust="spacingAndGlyphs" textLength="150"
              x="1460" y="1318.1797">"name": string
        </text>
        <line style="stroke: #A80036; stroke-width: 3.0;" x1="1450" x2="1758" y1="1330.8203" y2="1330.8203"/><!--MD5=[17f5a058898072a104ea5ef76b6ac124]
class activities-->
        <rect fill="#FEFECE" filter="url(#f1w4cdm613u0sl)" height="277.3711" id="activities"
              style="stroke: #A80036; stroke-width: 3.0;" width="326" x="511" y="762"/>
        <ellipse cx="616.5" cy="794" fill="#B4A7E5" rx="22" ry="22" style="stroke: #A80036; stroke-width: 2.0;"/>
        <path d="M609.3555,786.5303 L609.3555,782.2139 L624.1143,782.2139 L624.1143,786.5303 L619.1836,786.5303 L619.1836,802.6836 L624.1143,802.6836 L624.1143,807 L609.3555,807 L609.3555,802.6836 L614.2861,802.6836 L614.2861,786.5303 Z "/>
        <text fill="#000000" font-family="sans-serif" font-size="24" font-style="italic" lengthAdjust="spacingAndGlyphs"
              textLength="98" x="657.5" y="803.0703">activities
        </text>
        <line style="stroke: #A80036; stroke-width: 3.0;" x1="513" x2="835" y1="826" y2="826"/>
        <text fill="#000000" font-family="sans-serif" font-size="22" lengthAdjust="spacingAndGlyphs" textLength="112"
              x="523" y="855.2695">"id": string
        </text>
        <text fill="#000000" font-family="sans-serif" font-size="22" lengthAdjust="spacingAndGlyphs" textLength="150"
              x="523" y="881.1797">"name": string
        </text>
        <text fill="#000000" font-family="sans-serif" font-size="22" lengthAdjust="spacingAndGlyphs" textLength="176"
              x="523" y="907.0898">"actor-a": actors
        </text>
        <text fill="#000000" font-family="sans-serif" font-size="22" lengthAdjust="spacingAndGlyphs" textLength="178"
              x="523" y="933">"actor-b": actors
        </text>
        <text fill="#000000" font-family="sans-serif" font-size="22" lengthAdjust="spacingAndGlyphs" textLength="244"
              x="523" y="958.9102">"flow-type": flow-types
        </text>
        <text fill="#000000" font-family="sans-serif" font-size="22" lengthAdjust="spacingAndGlyphs" textLength="286"
              x="523" y="984.8203">"input": resource-objects[]
        </text>
        <text fill="#000000" font-family="sans-serif" font-size="22" lengthAdjust="spacingAndGlyphs" textLength="302"
              x="523" y="1010.7305">"output": resource-objects[]
        </text>
        <line style="stroke: #A80036; stroke-width: 3.0;" x1="513" x2="835" y1="1023.3711" y2="1023.3711"/><!--MD5=[f717bc8dfa16711d6bca063267395608]
class resource-objects-->
        <rect fill="#FEFECE" filter="url(#f1w4cdm613u0sl)" height="225.5508" id="resource-objects"
              style="stroke: #A80036; stroke-width: 3.0;" width="568" x="450" y="1160"/>
        <ellipse cx="626.5" cy="1192" fill="#B4A7E5" rx="22" ry="22" style="stroke: #A80036; stroke-width: 2.0;"/>
        <path d="M619.3555,1184.5303 L619.3555,1180.2139 L634.1143,1180.2139 L634.1143,1184.5303 L629.1836,1184.5303 L629.1836,1200.6836 L634.1143,1200.6836 L634.1143,1205 L619.3555,1205 L619.3555,1200.6836 L624.2861,1200.6836 L624.2861,1184.5303 Z "/>
        <text fill="#000000" font-family="sans-serif" font-size="24" font-style="italic" lengthAdjust="spacingAndGlyphs"
              textLength="198" x="667.5" y="1201.0703">resource-objects
        </text>
        <line style="stroke: #A80036; stroke-width: 3.0;" x1="452" x2="1016" y1="1224" y2="1224"/>
        <text fill="#000000" font-family="sans-serif" font-size="22" lengthAdjust="spacingAndGlyphs" textLength="112"
              x="462" y="1253.2695">"id": string
        </text>
        <text fill="#000000" font-family="sans-serif" font-size="22" lengthAdjust="spacingAndGlyphs" textLength="150"
              x="462" y="1279.1797">"name": string
        </text>
        <text fill="#000000" font-family="sans-serif" font-size="22" lengthAdjust="spacingAndGlyphs" textLength="290"
              x="462" y="1305.0898">"resource-type": resources
        </text>
        <text fill="#000000" font-family="sans-serif" font-size="22" lengthAdjust="spacingAndGlyphs" textLength="252"
              x="462" y="1331">"state": resource-states
        </text>
        <text fill="#000000" font-family="sans-serif" font-size="22" lengthAdjust="spacingAndGlyphs" textLength="544"
              x="462" y="1356.9102">"parameters-values": resource-parameter-values[]
        </text>
        <line style="stroke: #A80036; stroke-width: 3.0;" x1="452" x2="1016" y1="1369.5508" y2="1369.5508"/><!--MD5=[f521a79c8479196ad851e32c749bceb8]
class resource-parameter-values-->
        <rect fill="#FEFECE" filter="url(#f1w4cdm613u0sl)" height="147.8203" id="resource-parameter-values"
              style="stroke: #A80036; stroke-width: 3.0;" width="392" x="582" y="1506"/>
        <ellipse cx="614.7" cy="1538" fill="#B4A7E5" rx="22" ry="22" style="stroke: #A80036; stroke-width: 2.0;"/>
        <path d="M607.5555,1530.5303 L607.5555,1526.2139 L622.3143,1526.2139 L622.3143,1530.5303 L617.3836,1530.5303 L617.3836,1546.6836 L622.3143,1546.6836 L622.3143,1551 L607.5555,1551 L607.5555,1546.6836 L612.4861,1546.6836 L612.4861,1530.5303 Z "/>
        <text fill="#000000" font-family="sans-serif" font-size="24" font-style="italic" lengthAdjust="spacingAndGlyphs"
              textLength="322" x="643.3" y="1547.0703">resource-parameter-values
        </text>
        <line style="stroke: #A80036; stroke-width: 3.0;" x1="584" x2="972" y1="1570" y2="1570"/>
        <text fill="#000000" font-family="sans-serif" font-size="22" lengthAdjust="spacingAndGlyphs" textLength="368"
              x="594" y="1599.2695">"parameter": resource-parameters
        </text>
        <text fill="#000000" font-family="sans-serif" font-size="22" lengthAdjust="spacingAndGlyphs" textLength="148"
              x="594" y="1625.1797">"value": string
        </text>
        <line style="stroke: #A80036; stroke-width: 3.0;" x1="584" x2="972" y1="1637.8203" y2="1637.8203"/><!--MD5=[1422a4471995acb284b37996d8fb732b]
class flow-types-->
        <rect fill="#FEFECE" filter="url(#f1w4cdm613u0sl)" height="121.9102" id="flow-types"
              style="stroke: #A80036; stroke-width: 3.0;" width="368" x="596" y="507"/>
        <ellipse cx="710.5" cy="539" fill="#B4A7E5" rx="22" ry="22" style="stroke: #A80036; stroke-width: 2.0;"/>
        <path d="M703.3555,531.5303 L703.3555,527.2139 L718.1143,527.2139 L718.1143,531.5303 L713.1836,531.5303 L713.1836,547.6836 L718.1143,547.6836 L718.1143,552 L703.3555,552 L703.3555,547.6836 L708.2861,547.6836 L708.2861,531.5303 Z "/>
        <text fill="#000000" font-family="sans-serif" font-size="24" font-style="italic" lengthAdjust="spacingAndGlyphs"
              textLength="122" x="751.5" y="548.0703">flow-types
        </text>
        <line style="stroke: #A80036; stroke-width: 3.0;" x1="598" x2="962" y1="571" y2="571"/>
        <text fill="#000000" font-family="sans-serif" font-size="22" lengthAdjust="spacingAndGlyphs" textLength="344"
              x="608" y="600.2695">"type": enum [ "SYNC", "ASYNC" ]
        </text>
        <line style="stroke: #A80036; stroke-width: 3.0;" x1="598" x2="962" y1="612.9102" y2="612.9102"/><!--MD5=[72813b17044a8527a4621196b2e63e67]
link processes to actors-->
        <path d="M409.42,344.82 C376.22,390.86 338.5,443.2 308.1,485.4 " fill="none" id="processes-&gt;actors"
              style="stroke: #A80036; stroke-width: 2.0;"/>
        <polygon fill="#A80036" points="302.1,493.7,319.1217,483.7873,307.9528,485.5917,306.1484,474.4228,302.1,493.7"
                 style="stroke: #A80036; stroke-width: 2.0;"/>
        <text fill="#000000" font-family="sans-serif" font-size="26" lengthAdjust="spacingAndGlyphs" textLength="78"
              x="226.5153" y="472.4459">actors
        </text><!--MD5=[227230dfab214daf31e003519c837d23]
link processes to resources-->
        <path d="M632.1,248.58 C753.98,268.18 928.66,311.84 1050,408 C1176.16,507.98 1259.04,679.02 1302.74,790.52 "
              fill="none" id="processes-&gt;resources" style="stroke: #A80036; stroke-width: 2.0;"/>
        <polygon fill="#A80036"
                 points="1306.58,800.46,1307.5207,780.7848,1302.9597,791.1383,1292.6061,786.5773,1306.58,800.46"
                 style="stroke: #A80036; stroke-width: 2.0;"/>
        <text fill="#000000" font-family="sans-serif" font-size="26" lengthAdjust="spacingAndGlyphs" textLength="122"
              x="1171.3022" y="779.4178">resources
        </text><!--MD5=[96e035815b4c600a28e853a9ef0d3753]
link processes to activities-->
        <path d="M497.08,344.42 C505.5,438.52 523.64,575.8 562,690 C569,710.82 577.94,732.02 587.7,752.56 " fill="none"
              id="processes-&gt;activities" style="stroke: #A80036; stroke-width: 2.0;"/>
        <polygon fill="#A80036"
                 points="592.24,761.96,591.5718,742.2736,587.871,752.9649,577.1797,749.2641,592.24,761.96"
                 style="stroke: #A80036; stroke-width: 2.0;"/>
        <text fill="#000000" font-family="sans-serif" font-size="26" lengthAdjust="spacingAndGlyphs" textLength="114"
              x="589.5319" y="740.317">activities
        </text><!--MD5=[e42800baf55b2808de62ec72857441f2]
reverse link actors to activities-->
        <path d="M329.56,648.92 C380.64,691.4 448.32,744.42 510.3,790.7 " fill="none" id="actors&lt;-activities"
              style="stroke: #A80036; stroke-width: 2.0;"/>
        <polygon fill="#A80036" points="321.52,642.2,330.1942,659.885,329.1905,648.6159,340.4596,647.6121,321.52,642.2"
                 style="stroke: #A80036; stroke-width: 2.0;"/>
        <text fill="#000000" font-family="sans-serif" font-size="26" lengthAdjust="spacingAndGlyphs" textLength="94"
              x="400.8267" y="776.6809">actor-a
        </text><!--MD5=[e42800baf55b2808de62ec72857441f2]
reverse link actors to activities-->
        <path d="M345.36,627.62 C398.1,664.76 464.34,714.72 523.68,761.66 " fill="none" id="actors&lt;-activities-1"
              style="stroke: #A80036; stroke-width: 2.0;"/>
        <polygon fill="#A80036" points="337.02,621.76,347.1745,638.6386,345.211,627.4965,356.353,625.533,337.02,621.76"
                 style="stroke: #A80036; stroke-width: 2.0;"/>
        <text fill="#000000" font-family="sans-serif" font-size="26" lengthAdjust="spacingAndGlyphs" textLength="96"
              x="407.2283" y="740.9449">actor-b
        </text><!--MD5=[afa5332209773eb79f978b197b405534]
reverse link resources to resource-objects-->
        <path d="M1169.86,1006.32 C1091.08,1054.16 997.38,1111.06 917.08,1159.82 " fill="none"
              id="resources&lt;-resource-objects" style="stroke: #A80036; stroke-width: 2.0;"/>
        <polygon fill="#A80036"
                 points="1178.4,1001.14,1158.8587,1003.6177,1169.8453,1006.3186,1167.1445,1017.3052,1178.4,1001.14"
                 style="stroke: #A80036; stroke-width: 2.0;"/>
        <text fill="#000000" font-family="sans-serif" font-size="26" lengthAdjust="spacingAndGlyphs" textLength="178"
              x="751.134" y="1138.6022">resource-type
        </text><!--MD5=[878624a58fb5de2205d122eb0e4cb50a]
link resources to resource-states-->
        <path d="M1316.96,1001.62 C1303.28,1060.14 1286.14,1133.48 1273.2,1188.84 " fill="none"
              id="resources-&gt;resource-states" style="stroke: #A80036; stroke-width: 2.0;"/>
        <polygon fill="#A80036"
                 points="1270.84,1198.96,1282.6961,1183.23,1273.0969,1189.218,1267.1089,1179.6189,1270.84,1198.96"
                 style="stroke: #A80036; stroke-width: 2.0;"/>
        <text fill="#000000" font-family="sans-serif" font-size="26" lengthAdjust="spacingAndGlyphs" textLength="76"
              x="1233.1393" y="1041.6333">states
        </text><!--MD5=[7330a1ce0cc57c54b6cef1771f2fa15b]
link resources to resource-parameters-->
        <path d="M1410.74,1001.62 C1453.08,1060.62 1506.22,1134.7 1546.04,1190.22 " fill="none"
              id="resources-&gt;resource-parameters" style="stroke: #A80036; stroke-width: 2.0;"/>
        <polygon fill="#A80036"
                 points="1552.32,1198.96,1548.3163,1179.6735,1546.486,1190.8382,1535.3213,1189.0079,1552.32,1198.96"
                 style="stroke: #A80036; stroke-width: 2.0;"/>
        <text fill="#000000" font-family="sans-serif" font-size="26" lengthAdjust="spacingAndGlyphs" textLength="140"
              x="1428.7723" y="1041.6333">parameters
        </text><!--MD5=[14e0bc835c6640ef95f3baae0cc1170c]
link resource-objects to resource-states-->
        <path d="M1018.38,1273 C1052.3,1273 1086.22,1273 1120.14,1273 " fill="none"
              id="resource-objects-&gt;resource-states" style="stroke: #A80036; stroke-width: 2.0;"/>
        <polygon fill="#A80036" points="1130.66,1273,1112.66,1265,1120.66,1273,1112.66,1281,1130.66,1273"
                 style="stroke: #A80036; stroke-width: 2.0;"/>
        <text fill="#000000" font-family="sans-serif" font-size="26" lengthAdjust="spacingAndGlyphs" textLength="62"
              x="1033.6562" y="1267.4361">state
        </text><!--MD5=[e07735d0f5ba6a9af00435fa81cb8ecc]
link resource-parameter-values to resource-parameters-->
        <path d="M974.36,1536.24 C1102.18,1505.48 1270.76,1458.04 1412,1395 C1438.76,1383.06 1466.24,1367.88 1491.72,1352.38 "
              fill="none" id="resource-parameter-values-&gt;resource-parameters"
              style="stroke: #A80036; stroke-width: 2.0;"/>
        <polygon fill="#A80036"
                 points="1500.28,1347.12,1480.7613,1349.7697,1491.7713,1352.3737,1489.1673,1363.3837,1500.28,1347.12"
                 style="stroke: #A80036; stroke-width: 2.0;"/>
        <text fill="#000000" font-family="sans-serif" font-size="26" lengthAdjust="spacingAndGlyphs" textLength="140"
              x="989.7589" y="1528.0028">parameters
        </text><!--MD5=[fad75025a40d90a96acd0e0d6294aab8]
link resource-objects to resource-parameter-values-->
        <path d="M750.14,1386.1 C755.38,1422.22 761.1,1461.66 766,1495.32 " fill="none"
              id="resource-objects-&gt;resource-parameter-values" style="stroke: #A80036; stroke-width: 2.0;"/>
        <polygon fill="#A80036"
                 points="767.48,1505.58,772.8311,1486.623,766.0538,1495.6822,756.9946,1488.905,767.48,1505.58"
                 style="stroke: #A80036; stroke-width: 2.0;"/>
        <text fill="#000000" font-family="sans-serif" font-size="26" lengthAdjust="spacingAndGlyphs" textLength="236"
              x="501.7258" y="1426.9141">parameters-values
        </text><!--MD5=[ae4459b8c3da9caa332bb5ac06e3b30d]
link activities to resource-objects-->
        <path d="M671.6,1040.02 C676.3,1076.08 682.8,1114.7 690.12,1149.86 " fill="none"
              id="activities-&gt;resource-objects" style="stroke: #A80036; stroke-width: 2.0;"/>
        <polygon fill="#A80036"
                 points="692.2,1159.68,696.2778,1140.409,690.1183,1149.8991,680.6283,1143.7396,692.2,1159.68"
                 style="stroke: #A80036; stroke-width: 2.0;"/>
        <text fill="#000000" font-family="sans-serif" font-size="26" lengthAdjust="spacingAndGlyphs" textLength="66"
              x="602.1153" y="1080.3796">input
        </text><!--MD5=[ae4459b8c3da9caa332bb5ac06e3b30d]
link activities to resource-objects-->
        <path d="M722.54,1040.02 C729.62,1075.78 735.64,1114.04 739.7,1148.96 " fill="none"
              id="activities-&gt;resource-objects-1" style="stroke: #A80036; stroke-width: 2.0;"/>
        <polygon fill="#A80036"
                 points="740.88,1159.68,746.8255,1140.901,739.7663,1149.7422,730.9251,1142.683,740.88,1159.68"
                 style="stroke: #A80036; stroke-width: 2.0;"/>
        <text fill="#000000" font-family="sans-serif" font-size="26" lengthAdjust="spacingAndGlyphs" textLength="84"
              x="731.4525" y="1080.3796">output
        </text><!--MD5=[5b6fe6bbafcd4d0df14bf5593bd6d3dd]
reverse link flow-types to activities-->
        <path d="M757.66,639.34 C746.24,674.82 731.9,719.28 718.34,761.36 " fill="none" id="flow-types&lt;-activities"
              style="stroke: #A80036; stroke-width: 2.0;"/>
        <polygon fill="#A80036" points="760.8,629.58,747.6371,644.234,757.715,639.0922,762.8567,649.17,760.8,629.58"
                 style="stroke: #A80036; stroke-width: 2.0;"/>
        <text fill="#000000" font-family="sans-serif" font-size="26" lengthAdjust="spacingAndGlyphs" textLength="124"
              x="729.3063" y="740.6139">flow-type
        </text><!--MD5=[fe7f1af00a59273ba0c6fb6a27a2cbc5]
@startuml

package "Processes JSON Schema" {
    interface "processes" {
        "id": string
        "name": string
        "actors": actors[]
        "resources": resources[]
        "activities": activities[]
    }
}

package "Actors JSON Schema" {
    interface "actors" {
        "id": string
        "name": string
    }
}

package "Resources JSON Schema" {
    interface "resources" {
        "id": string
        "name": string
        "states": resource-states[]
        "parameters": resource-parameters[]
    }

    interface "resource-states" {
        "id": string
        "name": string
    }

    interface "resource-parameters" {
        "id": string
        "name": string
    }
}

package "Activities JSON Schema" {
    interface "activities" {
        "id": string
        "name": string
        "actor-a": actors
        "actor-b": actors
        "flow-type": flow-types
        "input": resource-objects[]
        "output": resource-objects[]
    }

    interface "resource-objects" {
        "id": string
        "name": string
        "resource-type": resources
        "state": resource-states
        "parameters-values": resource-parameter-values[]
    }

    interface "resource-parameter-values" {
        "parameter": resource-parameters
        "value": string
    }

    interface "flow-types" {
        "type": enum [ "SYNC", "ASYNC" ]
    }
}

"processes" - -> "actors" "actors"
"processes" - -> "resources" "resources"
"processes" - -> "activities" "activities"

"actors" <- - "actor-a" "activities"
"actors" <- - "actor-b" "activities"


"resources" <-up- "resource-type" "resource-objects"

"resource-states" <-down- "states" "resources"
"resource-parameters" <-down- "parameters" "resources"



"resource-states" <-right- "state" "resource-objects"
"resource-parameters" <-right- "parameters" "resource-parameter-values"

"resource-parameter-values" <-down- "parameters-values" "resource-objects"


"resource-objects" <-down- "input" "activities"
"resource-objects" <-down- "output" "activities"

"flow-types" <- - "flow-type" "activities"

@enduml

PlantUML version 1.2020.09(Sun May 10 13:51:06 EEST 2020)
(GPL source distribution)
Java Runtime: OpenJDK Runtime Environment
JVM: OpenJDK 64-Bit Server VM
Java Version: 11.0.7+10-b765.64
Operating System: Mac OS X
Default Encoding: UTF-8
Language: en
Country: GB
-->
    </g>
</svg>